{
  "$schema": "http://json-schema.org/draft-07/schema#",
  "title": "Comment",
  "description": "Comment schema used for json validation.",
  "type": "object",
  "properties": {
    "content": {
      "description": "The contents of the comment",
      "type": "string",
      "minLength": 1,
      "maxLength": 1024
    },
    "url": {
      "description": "Url where comment is posted",
      "type": "string",
      "minLength": 8,
      "maxLength": 2083
    }
  },
  "additionalProperties": true,
  "required": [
    "content",
    "url"
  ]
}
